{
  "API_URL": {
    "BASE": "http://localhost:3000/",
    "BASE_API": "http://localhost:3000/api/",
    "ARTICLES": "articles",
    "RECENT": "recent",
    "TAGS": "tags",
    "COMPILE": "compile",
    "LOGIN": "login",
    "REGISTER": "register",
    "USERS": "users",
    "AVATAR": "avatar",
    "SNIPPETS": "snippets",
    "SNAPSHOTS": "snapshots",
    "GOOGLE_AUTH": "auth/google",
    "GITHUB_AUTH": "auth/github",
    "FACEBOOK_AUTH": "auth/facebook"
  },
  "USER": {
    "ROLE": {
      "ADMIN": 1,
      "USER": 2
    }
  }
}
